[
    
    {
    "hostname": "cat001nr",
    "site": "NR",
    "platform": "WS-C2960X-48TS-L",
    "deviceFamily": "Switch",
    "deviceRole": "Unknown",
    "interfaceCount": "0"
    },
    {
    "hostname": "cat066nr",
    "site": "NR",
    "platform": "WS-C3750-48TS",
    "deviceFamily": "Switch",
    "deviceRole": "Unknown",
    "interfaceCount": "104"
    },
    {
    "hostname": "cat411nr",
    "site": "NR",
    "platform": "WS-C3750-48TS",
    "deviceFamily": "Switch",
    "deviceRole": "Unknown",
    "interfaceCount": "104"
    },
    {
    "hostname": "cat430nr",
    "site": "NR",
    "platform": "WS-C3750-48TS",
    "deviceFamily": "Switch",
    "deviceRole": "Unknown",
    "interfaceCount": "103"
    },
    {
    "hostname": "cat1rada",
    "site": "DEF",
    "platform": "WS-C2960X-48FPS-L",
    "deviceFamily": "Switch",
    "deviceRole": "Unknown",
    "interfaceCount": "0"
    },
    {
    "hostname": "cat2star",
    "site": "STR",
    "platform": "WS-C2960-24TC-L",
    "deviceFamily": "Switch",
    "deviceRole": "Unknown",
    "interfaceCount": "26"
    },
    {
    "hostname": "cat2portal",
    "site": "DEF",
    "platform": "WS-C3750-48TS",
    "deviceFamily": "Switch",
    "deviceRole": "Unknown",
    "interfaceCount": "52"
    },
    {
    "hostname": "cat4star",
    "site": "STR",
    "platform": "WS-C2960C-8PC-L",
    "deviceFamily": "Switch",
    "deviceRole": "Unknown",
    "interfaceCount": "10"
    },
    {
    "hostname": "cat13-serv",
    "site": "DEF",
    "platform": "WS-C2950G-24-EI",
    "deviceFamily": "Switch",
    "deviceRole": "Unknown",
    "interfaceCount": "26"
    },
    {
    "hostname": "cat12-serv",
    "site": "DEF",
    "platform": "WS-C2960-48TT-S",
    "deviceFamily": "Switch",
    "deviceRole": "Unknown",
    "interfaceCount": "50"
    },
    {
    "hostname": "cat11-serv",
    "site": "DEF",
    "platform": "WS-C3750X-48",
    "deviceFamily": "Switch",
    "deviceRole": "Unknown",
    "interfaceCount": "55"
    },
    {
    "hostname": "cat10-serv",
    "site": "DEF",
    "platform": "WS-C2950G-48-EI",
    "deviceFamily": "Switch",
    "deviceRole": "Unknown",
    "interfaceCount": "50"
    },
    {
    "hostname": "cat17-serv",
    "site": "DEF",
    "platform": "WS-C2970G-24T-E",
    "deviceFamily": "Switch",
    "deviceRole": "Unknown",
    "interfaceCount": "24"
    },
    {
    "hostname": "cat16-serv",
    "site": "DEF",
    "platform": "WS-C3750E-48TD",
    "deviceFamily": "Switch",
    "deviceRole": "Unknown",
    "interfaceCount": "51"
    },
    {
    "hostname": "cat15-serv",
    "site": "DEF",
    "platform": "WS-C3750E-48TD",
    "deviceFamily": "Switch",
    "deviceRole": "Unknown",
    "interfaceCount": "103"
    },
    {
    "hostname": "cat14-serv",
    "site": "DEF",
    "platform": "WS-C2950-24",
    "deviceFamily": "Switch",
    "deviceRole": "Unknown",
    "interfaceCount": "24"
    },
    {
    "hostname": "cat18-serv",
    "site": "DEF",
    "platform": "WS-C2960X-48FPD-L",
    "deviceFamily": "Switch",
    "deviceRole": "Unknown",
    "interfaceCount": "51"
    },
    {
    "hostname": "cat25b-nub",
    "site": "DEF",
    "platform": "WS-C3750E-48TD",
    "deviceFamily": "Switch",
    "deviceRole": "Unknown",
    "interfaceCount": "52"
    },
    {
    "hostname": "cat25a-nub",
    "site": "DEF",
    "platform": "WS-C2960G-48TC-L",
    "deviceFamily": "Switch",
    "deviceRole": "Unknown",
    "interfaceCount": "48"
    },
    {
    "hostname": "cat2-serv",
    "site": "DEF",
    "platform": "WS-C2960X-48TS-L",
    "deviceFamily": "Switch",
    "deviceRole": "Unknown",
    "interfaceCount": "53"
    },
    {
    "hostname": "cat3-serv",
    "site": "DEF",
    "platform": "WS-C2960-48TT-L",
    "deviceFamily": "Switch",
    "deviceRole": "Unknown",
    "interfaceCount": "50"
    },
    {
    "hostname": "cat1-serv",
    "site": "DEF",
    "platform": "WS-C2960-24TT-L",
    "deviceFamily": "Switch",
    "deviceRole": "Unknown",
    "interfaceCount": "26"
    },
    {
    "hostname": "cat6-serv",
    "site": "DEF",
    "platform": "WS-C2960X-24TS-LL",
    "deviceFamily": "Switch",
    "deviceRole": "Unknown",
    "interfaceCount": "27"
    },
    {
    "hostname": "gw1-skoda",
    "site": "JUN",
    "platform": "WS-C6509-E",
    "deviceFamily": "Switch",
    "deviceRole": "Core",
    "interfaceCount": "102"
    },
    {
    "hostname": "cat7-serv",
    "site": "DEF",
    "platform": "WS-C2950T-24",
    "deviceFamily": "Switch",
    "deviceRole": "Unknown",
    "interfaceCount": "26"
    },
    {
    "hostname": "cat4-serv",
    "site": "DEF",
    "platform": "WS-C2960G-24TC-L",
    "deviceFamily": "Switch",
    "deviceRole": "Unknown",
    "interfaceCount": "24"
    },
    {
    "hostname": "cat5-serv",
    "site": "DEF",
    "platform": "WS-C2960X-48TS-L",
    "deviceFamily": "Switch",
    "deviceRole": "Unknown",
    "interfaceCount": "53"
    },
    {
    "hostname": "cat8-serv",
    "site": "DEF",
    "platform": "WS-C2960G-24TC-L",
    "deviceFamily": "Switch",
    "deviceRole": "Unknown",
    "interfaceCount": "24"
    },
    {
    "hostname": "cat9-serv",
    "site": "DEF",
    "platform": "WS-C2960G-24TC-L",
    "deviceFamily": "Switch",
    "deviceRole": "Unknown",
    "interfaceCount": "24"
    },
    {
    "hostname": "cat066nr1",
    "site": "NR",
    "platform": "WS-C3560-48TS",
    "deviceFamily": "Switch",
    "deviceRole": "Unknown",
    "interfaceCount": "52"
    },
    {
    "hostname": "cat411nr4",
    "site": "NR",
    "platform": "WS-C3550-48",
    "deviceFamily": "Switch",
    "deviceRole": "Unknown",
    "interfaceCount": "50"
    },
    {
    "hostname": "cat066nr3",
    "site": "NR",
    "platform": "WS-C3560-48TS",
    "deviceFamily": "Switch",
    "deviceRole": "Unknown",
    "interfaceCount": "52"
    },
    {
    "hostname": "cat430nr4",
    "site": "NR",
    "platform": "WS-C2950G-48-EI",
    "deviceFamily": "Switch",
    "deviceRole": "Unknown",
    "interfaceCount": "50"
    },
    {
    "hostname": "cat066nr2",
    "site": "NR",
    "platform": "WS-C3560-48TS",
    "deviceFamily": "Switch",
    "deviceRole": "Unknown",
    "interfaceCount": "52"
    },
    {
    "hostname": "cat066nr5",
    "site": "NR",
    "platform": "WS-C2950G-48-EI",
    "deviceFamily": "Switch",
    "deviceRole": "Unknown",
    "interfaceCount": "50"
    },
    {
    "hostname": "cat411nr1",
    "site": "NR",
    "platform": "WS-C3550-24",
    "deviceFamily": "Switch",
    "deviceRole": "Unknown",
    "interfaceCount": "0"
    },
    {
    "hostname": "cat430nr2",
    "site": "NR",
    "platform": "WS-C2950G-48-EI",
    "deviceFamily": "Switch",
    "deviceRole": "Unknown",
    "interfaceCount": "50"
    },
    {
    "hostname": "cat066nr4",
    "site": "NR",
    "platform": "WS-C3550-24",
    "deviceFamily": "Switch",
    "deviceRole": "Unknown",
    "interfaceCount": "26"
    },
    {
    "hostname": "cat1-vr",
    "site": "DEF",
    "platform": "WS-C2960-8TC-L",
    "deviceFamily": "Switch",
    "deviceRole": "Unknown",
    "interfaceCount": "9"
    },
    {
    "hostname": "cat430nr3",
    "site": "NR",
    "platform": "WS-C2960S-48TS-L",
    "deviceFamily": "Switch",
    "deviceRole": "Unknown",
    "interfaceCount": "53"
    },
    {
    "hostname": "cat411nr3",
    "site": "NR",
    "platform": "WS-C2960X-48TS-L",
    "deviceFamily": "Switch",
    "deviceRole": "Unknown",
    "interfaceCount": "53"
    },
    {
    "hostname": "cat066nr6",
    "site": "NR",
    "platform": "WS-C2960X-48FPD-L",
    "deviceFamily": "Switch",
    "deviceRole": "Unknown",
    "interfaceCount": "51"
    },
    {
    "hostname": "cat411nr2",
    "site": "NR",
    "platform": "WS-C2950G-48-EI",
    "deviceFamily": "Switch",
    "deviceRole": "Unknown",
    "interfaceCount": "50"
    },
    {
    "hostname": "cat430nr1",
    "site": "NR",
    "platform": "WS-C3550-48",
    "deviceFamily": "Switch",
    "deviceRole": "Unknown",
    "interfaceCount": "50"
    },
    {
    "hostname": "gw1-vpn",
    "site": "DEF",
    "platform": "2821",
    "deviceFamily": "Router",
    "deviceRole": "Unknown",
    "interfaceCount": "0"
    },
    {
    "hostname": "gw4-serv",
    "site": "DEF",
    "platform": "7206VXR",
    "deviceFamily": "Router",
    "deviceRole": "Unknown",
    "interfaceCount": "0"
    },
    {
    "hostname": "gw2-serv",
    "site": "DEF",
    "platform": "WS-C6509",
    "deviceFamily": "Switch",
    "deviceRole": "Unknown",
    "interfaceCount": "162"
    },
    {
    "hostname": "gw3-serv",
    "site": "DEF",
    "platform": "WS-C6506-E",
    "deviceFamily": "Switch",
    "deviceRole": "Core",
    "interfaceCount": "90"
    },
    {
    "hostname": "gw1-nr",
    "site": "NR",
    "platform": "WS-C4506",
    "deviceFamily": "Switch",
    "deviceRole": "Unknown",
    "interfaceCount": "0"
    },
    {
    "hostname": "LEAF-101(FDO212529VY)",
    "site": "DEF",
    "platform": "N9K-C93180YC-EX",
    "deviceFamily": "Unknown",
    "deviceRole": "Unknown",
    "interfaceCount": "0"
    },
    {
    "hostname": "cat1val",
    "site": "DEF",
    "platform": "WS-C2960G-24TC-L",
    "deviceFamily": "Switch",
    "deviceRole": "Unknown",
    "interfaceCount": "24"
    },
    {
    "hostname": "cat1mks",
    "site": "DEF",
    "platform": "WS-C2960X-48TS-L",
    "deviceFamily": "Switch",
    "deviceRole": "Unknown",
    "interfaceCount": "53"
    },
    {
    "hostname": "cat1rad",
    "site": "DEF",
    "platform": "WS-C2960-8TC-S",
    "deviceFamily": "Switch",
    "deviceRole": "Unknown",
    "interfaceCount": "9"
    },
    {
    "hostname": "cat1int",
    "site": "DEF",
    "platform": "WS-C2960G-24TC-L",
    "deviceFamily": "Switch",
    "deviceRole": "Unknown",
    "interfaceCount": "24"
    },
    {
    "hostname": "cat1rez",
    "site": "REZ",
    "platform": "WS-C3560-48PS",
    "deviceFamily": "Switch",
    "deviceRole": "Unknown",
    "interfaceCount": "52"
    },
    {
    "hostname": "cat38-nub",
    "site": "DEF",
    "platform": "WS-C3750-48TS",
    "deviceFamily": "Switch",
    "deviceRole": "Unknown",
    "interfaceCount": "52"
    },
    {
    "hostname": "cat39-nub",
    "site": "DEF",
    "platform": "WS-C2950C-24",
    "deviceFamily": "Switch",
    "deviceRole": "Unknown",
    "interfaceCount": "26"
    },
    {
    "hostname": "cat1zas",
    "site": "DEF",
    "platform": "WS-C3750-48TS",
    "deviceFamily": "Switch",
    "deviceRole": "Unknown",
    "interfaceCount": "52"
    },
    {
    "hostname": "cat3zas",
    "site": "DEF",
    "platform": "WS-C3560-48PS",
    "deviceFamily": "Switch",
    "deviceRole": "Unknown",
    "interfaceCount": "52"
    },
    {
    "hostname": "cat1min",
    "site": "DEF",
    "platform": "WS-C2960X-48LPS-L",
    "deviceFamily": "Switch",
    "deviceRole": "Unknown",
    "interfaceCount": "53"
    },
    {
    "hostname": "cat37-nub",
    "site": "DEF",
    "platform": "WS-C2960X-24TS-L",
    "deviceFamily": "Switch",
    "deviceRole": "Unknown",
    "interfaceCount": "29"
    },
    {
    "hostname": "cat103-serv",
    "site": "DEF",
    "platform": "WS-C3750-48TS",
    "deviceFamily": "Switch",
    "deviceRole": "Unknown",
    "interfaceCount": "52"
    },
    {
    "hostname": "cat102-serv",
    "site": "DEF",
    "platform": "WS-C3550-48",
    "deviceFamily": "Switch",
    "deviceRole": "Unknown",
    "interfaceCount": "50"
    },
    {
    "hostname": "cat101-serv",
    "site": "DEF",
    "platform": "WS-C3750-48TS",
    "deviceFamily": "Switch",
    "deviceRole": "Unknown",
    "interfaceCount": "52"
    },
    {
    "hostname": "cat100-serv",
    "site": "DEF",
    "platform": "WS-C3550-48",
    "deviceFamily": "Switch",
    "deviceRole": "Unknown",
    "interfaceCount": "50"
    },
    {
    "hostname": "cat105-serv",
    "site": "DEF",
    "platform": "WS-C3560-48TS",
    "deviceFamily": "Switch",
    "deviceRole": "Unknown",
    "interfaceCount": "52"
    },
    {
    "hostname": "cat104-serv",
    "site": "DEF",
    "platform": "WS-C2950G-48-EI",
    "deviceFamily": "Switch",
    "deviceRole": "Unknown",
    "interfaceCount": "50"
    },
    {
    "hostname": "gw1-serv",
    "site": "DEF",
    "platform": "WS-C6509-E",
    "deviceFamily": "Switch",
    "deviceRole": "Core",
    "interfaceCount": "168"
    },
    {
    "hostname": "cat1nub",
    "site": "DEF",
    "platform": "WS-C2960C-8TC-L",
    "deviceFamily": "Switch",
    "deviceRole": "Unknown",
    "interfaceCount": "10"
    },
    {
    "hostname": "apnub2",
    "site": "DEF",
    "platform": "AIR-SAP1702I-E-K9",
    "deviceFamily": "Access Point",
    "deviceRole": "Access Point",
    "interfaceCount": "0"
    },
    {
    "hostname": "apnub1",
    "site": "DEF",
    "platform": "AIR-SAP1702I-E-K9",
    "deviceFamily": "Access Point",
    "deviceRole": "Access Point",
    "interfaceCount": "0"
    },
    {
    "hostname": "cat1portal",
    "site": "DEF",
    "platform": "WS-C3750-48TS",
    "deviceFamily": "Switch",
    "deviceRole": "Unknown",
    "interfaceCount": "52"
    },
    {
    "hostname": "gw2-skoda",
    "site": "JUN",
    "platform": "WS-C6509-E",
    "deviceFamily": "Switch",
    "deviceRole": "Core",
    "interfaceCount": "50"
    },
    {
    "hostname": "gw1-wifi",
    "site": "DEF",
    "platform": "WS-C6509-E",
    "deviceFamily": "Switch",
    "deviceRole": "Unknown",
    "interfaceCount": "0"
    },
    {
    "hostname": "cat1mkp",
    "site": "DEF",
    "platform": "WS-C2950C-24",
    "deviceFamily": "Switch",
    "deviceRole": "Unknown",
    "interfaceCount": "0"
    },
    {
    "hostname": "jung08-gw2",
    "site": "DEF",
    "platform": "ME-3400EG-12CS-M",
    "deviceFamily": "Unknown",
    "deviceRole": "Unknown",
    "interfaceCount": "0"
    },
    {
    "hostname": "dsa1",
    "site": "DEF",
    "platform": "WS-C3560-48TS",
    "deviceFamily": "Switch",
    "deviceRole": "Unknown",
    "interfaceCount": "52"
    },
    {
    "hostname": "catKIOsk1",
    "site": "JUN",
    "platform": "WS-C3750-48TS",
    "deviceFamily": "Switch",
    "deviceRole": "Unknown",
    "interfaceCount": "52"
    },
    {
    "hostname": "cat43ask",
    "site": "JUN",
    "platform": "WS-C3560-48PS",
    "deviceFamily": "Switch",
    "deviceRole": "Unknown",
    "interfaceCount": "52"
    },
    {
    "hostname": "cat2adrie",
    "site": "DEF",
    "platform": "WS-C2960X-48FPS-L",
    "deviceFamily": "Switch",
    "deviceRole": "Unknown",
    "interfaceCount": "53"
    },
    {
    "hostname": "cat04Ask",
    "site": "JUN",
    "platform": "WS-C2960X-48FPS-L",
    "deviceFamily": "Switch",
    "deviceRole": "Unknown",
    "interfaceCount": "53"
    },
    {
    "hostname": "cat73Ask",
    "site": "JUN",
    "platform": "WS-C3560-48PS",
    "deviceFamily": "Switch",
    "deviceRole": "Unknown",
    "interfaceCount": "52"
    },
    {
    "hostname": "cat51Ask",
    "site": "JUN",
    "platform": "WS-C3560-48PS",
    "deviceFamily": "Switch",
    "deviceRole": "Unknown",
    "interfaceCount": "52"
    },
    {
    "hostname": "cat70Bsk",
    "site": "JUN",
    "platform": "WS-C3560-48PS",
    "deviceFamily": "Switch",
    "deviceRole": "Unknown",
    "interfaceCount": "52"
    },
    {
    "hostname": "cat60Csk",
    "site": "JUN",
    "platform": "WS-C3560-48PS",
    "deviceFamily": "Switch",
    "deviceRole": "Unknown",
    "interfaceCount": "52"
    },
    {
    "hostname": "cat40Ask",
    "site": "JUN",
    "platform": "WS-C3560-48PS",
    "deviceFamily": "Switch",
    "deviceRole": "Unknown",
    "interfaceCount": "52"
    },
    {
    "hostname": "cat62Ask",
    "site": "JUN",
    "platform": "WS-C2960X-48FPS-L",
    "deviceFamily": "Switch",
    "deviceRole": "Unknown",
    "interfaceCount": "53"
    },
    {
    "hostname": "cat50Ask",
    "site": "JUN",
    "platform": "WS-C3560-48PS",
    "deviceFamily": "Switch",
    "deviceRole": "Unknown",
    "interfaceCount": "52"
    },
    {
    "hostname": "cat05Ask",
    "site": "JUN",
    "platform": "WS-C2960-24PC-L",
    "deviceFamily": "Switch",
    "deviceRole": "Unknown",
    "interfaceCount": "26"
    },
    {
    "hostname": "cat71Bsk",
    "site": "JUN",
    "platform": "WS-C3560-48PS",
    "deviceFamily": "Switch",
    "deviceRole": "Unknown",
    "interfaceCount": "52"
    },
    {
    "hostname": "cat72Ask",
    "site": "JUN",
    "platform": "WS-C3560-48PS",
    "deviceFamily": "Switch",
    "deviceRole": "Unknown",
    "interfaceCount": "52"
    },
    {
    "hostname": "cat41Ask",
    "site": "JUN",
    "platform": "WS-C3560-48PS",
    "deviceFamily": "Switch",
    "deviceRole": "Unknown",
    "interfaceCount": "52"
    },
    {
    "hostname": "cat60Bsk",
    "site": "JUN",
    "platform": "WS-C3560-48PS",
    "deviceFamily": "Switch",
    "deviceRole": "Unknown",
    "interfaceCount": "52"
    },
    {
    "hostname": "cat61Csk",
    "site": "JUN",
    "platform": "WS-C3560-48PS",
    "deviceFamily": "Switch",
    "deviceRole": "Unknown",
    "interfaceCount": "52"
    },
    {
    "hostname": "cat06Ask",
    "site": "JUN",
    "platform": "WS-C2960X-48FPS-L",
    "deviceFamily": "Switch",
    "deviceRole": "Unknown",
    "interfaceCount": "53"
    },
    {
    "hostname": "cat71Ask",
    "site": "JUN",
    "platform": "WS-C3560-48PS",
    "deviceFamily": "Switch",
    "deviceRole": "Unknown",
    "interfaceCount": "52"
    },
    {
    "hostname": "cat60Ask",
    "site": "JUN",
    "platform": "WS-C3560-48PS",
    "deviceFamily": "Switch",
    "deviceRole": "Unknown",
    "interfaceCount": "52"
    },
    {
    "hostname": "cat51Csk",
    "site": "JUN",
    "platform": "WS-C3560-48PS",
    "deviceFamily": "Switch",
    "deviceRole": "Unknown",
    "interfaceCount": "52"
    },
    {
    "hostname": "cat50Bsk",
    "site": "JUN",
    "platform": "WS-C3560-48PS",
    "deviceFamily": "Switch",
    "deviceRole": "Unknown",
    "interfaceCount": "52"
    },
    {
    "hostname": "cat40Csk",
    "site": "JUN",
    "platform": "WS-C3560-48PS",
    "deviceFamily": "Switch",
    "deviceRole": "Unknown",
    "interfaceCount": "52"
    },
    {
    "hostname": "cat53Ask",
    "site": "JUN",
    "platform": "WS-C3560-48PS",
    "deviceFamily": "Switch",
    "deviceRole": "Unknown",
    "interfaceCount": "52"
    },
    {
    "hostname": "cat62Csk",
    "site": "JUN",
    "platform": "WS-C3560V2-48PS",
    "deviceFamily": "Switch",
    "deviceRole": "Unknown",
    "interfaceCount": "52"
    },
    {
    "hostname": "cat34Ask",
    "site": "JUN",
    "platform": "WS-C3560-48TS",
    "deviceFamily": "Switch",
    "deviceRole": "Unknown",
    "interfaceCount": "52"
    },
    {
    "hostname": "cat70Ask",
    "site": "JUN",
    "platform": "WS-C3560-48PS",
    "deviceFamily": "Switch",
    "deviceRole": "Unknown",
    "interfaceCount": "52"
    },
    {
    "hostname": "cat52Ask",
    "site": "JUN",
    "platform": "WS-C3560-48PS",
    "deviceFamily": "Switch",
    "deviceRole": "Unknown",
    "interfaceCount": "52"
    },
    {
    "hostname": "cat50Csk",
    "site": "JUN",
    "platform": "WS-C3560-48PS",
    "deviceFamily": "Switch",
    "deviceRole": "Unknown",
    "interfaceCount": "52"
    },
    {
    "hostname": "cat40Bsk",
    "site": "JUN",
    "platform": "WS-C3560-48PS",
    "deviceFamily": "Switch",
    "deviceRole": "Unknown",
    "interfaceCount": "52"
    },
    {
    "hostname": "cat51Bsk",
    "site": "JUN",
    "platform": "WS-C2960-48PST-L",
    "deviceFamily": "Switch",
    "deviceRole": "Unknown",
    "interfaceCount": "52"
    },
    {
    "hostname": "cat61Ask",
    "site": "JUN",
    "platform": "WS-C3560-48PS",
    "deviceFamily": "Switch",
    "deviceRole": "Unknown",
    "interfaceCount": "52"
    },
    {
    "hostname": "cat30Bsk",
    "site": "JUN",
    "platform": "WS-C3560-48PS",
    "deviceFamily": "Switch",
    "deviceRole": "Unknown",
    "interfaceCount": "52"
    },
    {
    "hostname": "cat20Csk",
    "site": "JUN",
    "platform": "WS-C3560-48PS",
    "deviceFamily": "Switch",
    "deviceRole": "Unknown",
    "interfaceCount": "52"
    },
    {
    "hostname": "cat22Ask",
    "site": "JUN",
    "platform": "WS-C3560-48PS",
    "deviceFamily": "Switch",
    "deviceRole": "Unknown",
    "interfaceCount": "52"
    },
    {
    "hostname": "cat33Ask",
    "site": "JUN",
    "platform": "WS-C2960X-48FPS-L",
    "deviceFamily": "Switch",
    "deviceRole": "Unknown",
    "interfaceCount": "53"
    },
    {
    "hostname": "cat23Ask",
    "site": "JUN",
    "platform": "WS-C3560-48PS",
    "deviceFamily": "Switch",
    "deviceRole": "Unknown",
    "interfaceCount": "52"
    },
    {
    "hostname": "cat30Csk",
    "site": "JUN",
    "platform": "WS-C3560-48PS",
    "deviceFamily": "Switch",
    "deviceRole": "Unknown",
    "interfaceCount": "52"
    },
    {
    "hostname": "cat32Ask",
    "site": "JUN",
    "platform": "WS-C3560-48PS",
    "deviceFamily": "Switch",
    "deviceRole": "Unknown",
    "interfaceCount": "52"
    },
    {
    "hostname": "cat21Csk",
    "site": "JUN",
    "platform": "WS-C3560-48PS",
    "deviceFamily": "Switch",
    "deviceRole": "Unknown",
    "interfaceCount": "52"
    },
    {
    "hostname": "cat01Ask",
    "site": "JUN",
    "platform": "WS-C3560-48PS",
    "deviceFamily": "Switch",
    "deviceRole": "Unknown",
    "interfaceCount": "52"
    },
    {
    "hostname": "cat20Bsk",
    "site": "JUN",
    "platform": "WS-C2960X-48FPS-L",
    "deviceFamily": "Switch",
    "deviceRole": "Unknown",
    "interfaceCount": "53"
    },
    {
    "hostname": "cat02Bsk",
    "site": "JUN",
    "platform": "WS-C3560V2-48PS",
    "deviceFamily": "Switch",
    "deviceRole": "Unknown",
    "interfaceCount": "52"
    },
    {
    "hostname": "cat31Bsk",
    "site": "JUN",
    "platform": "WS-C3560V2-24PS",
    "deviceFamily": "Switch",
    "deviceRole": "Unknown",
    "interfaceCount": "26"
    },
    {
    "hostname": "cat01Bsk",
    "site": "JUN",
    "platform": "WS-C3560-48PS",
    "deviceFamily": "Switch",
    "deviceRole": "Unknown",
    "interfaceCount": "52"
    },
    {
    "hostname": "cat31Ask",
    "site": "JUN",
    "platform": "WS-C3560-48PS",
    "deviceFamily": "Switch",
    "deviceRole": "Unknown",
    "interfaceCount": "52"
    },
    {
    "hostname": "cat20Ask",
    "site": "JUN",
    "platform": "WS-C3560-48PS",
    "deviceFamily": "Switch",
    "deviceRole": "Unknown",
    "interfaceCount": "52"
    },
    {
    "hostname": "cat02Ask",
    "site": "JUN",
    "platform": "WS-C3560-48PS",
    "deviceFamily": "Switch",
    "deviceRole": "Unknown",
    "interfaceCount": "52"
    },
    {
    "hostname": "cat64Ask",
    "site": "JUN",
    "platform": "WS-C3560-48PS",
    "deviceFamily": "Switch",
    "deviceRole": "Unknown",
    "interfaceCount": "52"
    },
    {
    "hostname": "cat66Csk",
    "site": "JUN",
    "platform": "WS-C3560V2-48PS",
    "deviceFamily": "Switch",
    "deviceRole": "Unknown",
    "interfaceCount": "52"
    },
    {
    "hostname": "cat30Ask",
    "site": "JUN",
    "platform": "WS-C3560-48PS",
    "deviceFamily": "Switch",
    "deviceRole": "Unknown",
    "interfaceCount": "52"
    },
    {
    "hostname": "cat03Ask",
    "site": "JUN",
    "platform": "WS-C3560-48PS",
    "deviceFamily": "Switch",
    "deviceRole": "Unknown",
    "interfaceCount": "52"
    },
    {
    "hostname": "cat03-servj",
    "site": "DEF",
    "platform": "WS-C2960G-24TC-L",
    "deviceFamily": "Switch",
    "deviceRole": "Unknown",
    "interfaceCount": "24"
    },
    {
    "hostname": "cat04-servj",
    "site": "DEF",
    "platform": "WS-C2960G-24TC-L",
    "deviceFamily": "Switch",
    "deviceRole": "Unknown",
    "interfaceCount": "24"
    },
    {
    "hostname": "cat08Ask",
    "site": "JUN",
    "platform": "WS-C2950C-24",
    "deviceFamily": "Switch",
    "deviceRole": "Unknown",
    "interfaceCount": "26"
    },
    {
    "hostname": "cat09Ask",
    "site": "JUN",
    "platform": "WS-C2950T-48-SI",
    "deviceFamily": "Switch",
    "deviceRole": "Unknown",
    "interfaceCount": "50"
    },
    {
    "hostname": "jun-blibm-01-sw01",
    "site": "DEF",
    "platform": "WS-CBS3012-IBM-I",
    "deviceFamily": "Switch",
    "deviceRole": "Unknown",
    "interfaceCount": "19"
    },
    {
    "hostname": "jun-blibm-01-sw02",
    "site": "DEF",
    "platform": "WS-CBS3012-IBM-I",
    "deviceFamily": "Switch",
    "deviceRole": "Unknown",
    "interfaceCount": "19"
    },
    {
    "hostname": "AP-SKODANONROOT",
    "site": "JUN",
    "platform": "AIR-SAP1702I-E-K9",
    "deviceFamily": "Access Point",
    "deviceRole": "Access Point",
    "interfaceCount": "0"
    },
    {
    "hostname": "ap5",
    "site": "JUN",
    "platform": "AIR-AP1131AG-E-K9",
    "deviceFamily": "Access Point",
    "deviceRole": "Access Point",
    "interfaceCount": "0"
    },
    {
    "hostname": "apsk7",
    "site": "JUN",
    "platform": "AIR-SAP702I-E-K9",
    "deviceFamily": "Access Point",
    "deviceRole": "Access Point",
    "interfaceCount": "0"
    },
    {
    "hostname": "cat03Bsk",
    "site": "JUN",
    "platform": "WS-C2960G-24TC-L",
    "deviceFamily": "Switch",
    "deviceRole": "Unknown",
    "interfaceCount": "24"
    },
    {
    "hostname": "204c9e6e6090",
    "site": "DEF",
    "platform": "SG300-20",
    "deviceFamily": "Unknown",
    "deviceRole": "Unknown",
    "interfaceCount": "0"
    },
    {
    "hostname": "cat21Ask",
    "site": "JUN",
    "platform": "WS-C3560-48PS",
    "deviceFamily": "Switch",
    "deviceRole": "Unknown",
    "interfaceCount": "52"
    },
    {
    "hostname": "cat28Ask",
    "site": "JUN",
    "platform": "WS-C2950-12",
    "deviceFamily": "Switch",
    "deviceRole": "Unknown",
    "interfaceCount": "12"
    },
    {
    "hostname": "cat29Ask",
    "site": "JUN",
    "platform": "WS-C2950C-24",
    "deviceFamily": "Switch",
    "deviceRole": "Unknown",
    "interfaceCount": "26"
    },
    {
    "hostname": "cat24Ask",
    "site": "JUN",
    "platform": "WS-C3560-48TS",
    "deviceFamily": "Switch",
    "deviceRole": "Unknown",
    "interfaceCount": "52"
    },
    {
    "hostname": "cat31Csk",
    "site": "JUN",
    "platform": "WS-C3560-48PS",
    "deviceFamily": "Switch",
    "deviceRole": "Unknown",
    "interfaceCount": "52"
    },
    {
    "hostname": "cat39Bsk",
    "site": "JUN",
    "platform": "WS-C2950-24",
    "deviceFamily": "Switch",
    "deviceRole": "Unknown",
    "interfaceCount": "24"
    },
    {
    "hostname": "cat39Ask",
    "site": "JUN",
    "platform": "WS-C2950G-48-EI",
    "deviceFamily": "Switch",
    "deviceRole": "Unknown",
    "interfaceCount": "50"
    },
    {
    "hostname": "cat42Ask",
    "site": "JUN",
    "platform": "WS-C3560-48PS",
    "deviceFamily": "Switch",
    "deviceRole": "Unknown",
    "interfaceCount": "52"
    },
    {
    "hostname": "cat41Bsk",
    "site": "JUN",
    "platform": "WS-C3560-48TS",
    "deviceFamily": "Switch",
    "deviceRole": "Unknown",
    "interfaceCount": "52"
    },
    {
    "hostname": "cat41Csk",
    "site": "JUN",
    "platform": "WS-C3560-48PS",
    "deviceFamily": "Switch",
    "deviceRole": "Unknown",
    "interfaceCount": "52"
    },
    {
    "hostname": "cat49Csk",
    "site": "JUN",
    "platform": "WS-C2950C-24",
    "deviceFamily": "Switch",
    "deviceRole": "Unknown",
    "interfaceCount": "0"
    },
    {
    "hostname": "cat44Ask",
    "site": "JUN",
    "platform": "WS-C2960X-24PS-L",
    "deviceFamily": "Switch",
    "deviceRole": "Unknown",
    "interfaceCount": "29"
    },
    {
    "hostname": "cat49Ask",
    "site": "JUN",
    "platform": "WS-C2950G-48-EI",
    "deviceFamily": "Switch",
    "deviceRole": "Unknown",
    "interfaceCount": "50"
    },
    {
    "hostname": "cat59Csk",
    "site": "JUN",
    "platform": "WS-C2940-8TT-S",
    "deviceFamily": "Switch",
    "deviceRole": "Unknown",
    "interfaceCount": "9"
    },
    {
    "hostname": "ap3",
    "site": "JUN",
    "platform": "AIR-SAP1702I-E-K9",
    "deviceFamily": "Access Point",
    "deviceRole": "Access Point",
    "interfaceCount": "0"
    },
    {
    "hostname": "cat59Ask",
    "site": "JUN",
    "platform": "WS-C2950C-24",
    "deviceFamily": "Switch",
    "deviceRole": "Unknown",
    "interfaceCount": "26"
    },
    {
    "hostname": "cat58Ask",
    "site": "JUN",
    "platform": "WS-C2950-12",
    "deviceFamily": "Switch",
    "deviceRole": "Unknown",
    "interfaceCount": "12"
    },
    {
    "hostname": "cat63Ask",
    "site": "JUN",
    "platform": "WS-C3560-48PS",
    "deviceFamily": "Switch",
    "deviceRole": "Unknown",
    "interfaceCount": "52"
    },
    {
    "hostname": "cat61Bsk",
    "site": "JUN",
    "platform": "WS-C3560-48PS",
    "deviceFamily": "Switch",
    "deviceRole": "Unknown",
    "interfaceCount": "52"
    },
    {
    "hostname": "cat69Bsk",
    "site": "JUN",
    "platform": "WS-C2950T-48-SI",
    "deviceFamily": "Switch",
    "deviceRole": "Unknown",
    "interfaceCount": "50"
    },
    {
    "hostname": "cat65Ask",
    "site": "JUN",
    "platform": "WS-C3750-48TS",
    "deviceFamily": "Switch",
    "deviceRole": "Unknown",
    "interfaceCount": "0"
    },
    {
    "hostname": "cat65Csk",
    "site": "JUN",
    "platform": "WS-C2960-48TT-L",
    "deviceFamily": "Switch",
    "deviceRole": "Unknown",
    "interfaceCount": "50"
    },
    {
    "hostname": "ap4",
    "site": "JUN",
    "platform": "AIR-AP1242AG-E-K9",
    "deviceFamily": "Access Point",
    "deviceRole": "Access Point",
    "interfaceCount": "0"
    },
    {
    "hostname": "SEPD867D9791295",
    "site": "DEF",
    "platform": "CTS-CODEC-SX20",
    "deviceFamily": "Unknown",
    "deviceRole": "Unknown",
    "interfaceCount": "0"
    },
    {
    "hostname": "cat74Ask",
    "site": "JUN",
    "platform": "WS-C3750-48TS",
    "deviceFamily": "Switch",
    "deviceRole": "Unknown",
    "interfaceCount": "0"
    },
    {
    "hostname": "catKIOsk2",
    "site": "JUN",
    "platform": "WS-C2950G-48-EI",
    "deviceFamily": "Switch",
    "deviceRole": "Unknown",
    "interfaceCount": "50"
    },
    {
    "hostname": "gw5-serv",
    "site": "DEF",
    "platform": "2821",
    "deviceFamily": "Router",
    "deviceRole": "Unknown",
    "interfaceCount": "0"
    },
    {
    "hostname": "cat038nr",
    "site": "NR",
    "platform": "WS-C3560-8PC",
    "deviceFamily": "Switch",
    "deviceRole": "Unknown",
    "interfaceCount": "9"
    },
    {
    "hostname": "cat066nr7",
    "site": "NR",
    "platform": "WS-C2950C-24",
    "deviceFamily": "Switch",
    "deviceRole": "Unknown",
    "interfaceCount": "26"
    },
    {
    "hostname": "cat138nr",
    "site": "NR",
    "platform": "WS-C2960-24TT-L",
    "deviceFamily": "Switch",
    "deviceRole": "Unknown",
    "interfaceCount": "26"
    },
    {
    "hostname": "apnr19",
    "site": "NR",
    "platform": "AIR-SAP702I-E-K9",
    "deviceFamily": "Access Point",
    "deviceRole": "Access Point",
    "interfaceCount": "0"
    },
    {
    "hostname": "catnr-ezs",
    "site": "NR",
    "platform": "WS-C2960G-24TC-L",
    "deviceFamily": "Switch",
    "deviceRole": "Unknown",
    "interfaceCount": "24"
    },
    {
    "hostname": "cat212nr",
    "site": "NR",
    "platform": "WS-C2960C-8TC-S",
    "deviceFamily": "Switch",
    "deviceRole": "Unknown",
    "interfaceCount": "10"
    },
    {
    "hostname": "cat220nr",
    "site": "NR",
    "platform": "WS-C2940-8TT-S",
    "deviceFamily": "Switch",
    "deviceRole": "Unknown",
    "interfaceCount": "9"
    },
    {
    "hostname": "cat217nr",
    "site": "NR",
    "platform": "WS-C2960C-8TC-S",
    "deviceFamily": "Switch",
    "deviceRole": "Unknown",
    "interfaceCount": "10"
    },
    {
    "hostname": "cat219nr",
    "site": "NR",
    "platform": "WS-C2960-8TC-S",
    "deviceFamily": "Switch",
    "deviceRole": "Unknown",
    "interfaceCount": "9"
    },
    {
    "hostname": "cat325nr",
    "site": "NR",
    "platform": "WS-C2940-8TT-S",
    "deviceFamily": "Switch",
    "deviceRole": "Unknown",
    "interfaceCount": "9"
    },
    {
    "hostname": "cat214nr",
    "site": "NR",
    "platform": "WS-C2960C-8TC-L",
    "deviceFamily": "Switch",
    "deviceRole": "Unknown",
    "interfaceCount": "0"
    },
    {
    "hostname": "cat208nr",
    "site": "NR",
    "platform": "WS-C2960C-8TC-L",
    "deviceFamily": "Switch",
    "deviceRole": "Unknown",
    "interfaceCount": "10"
    },
    {
    "hostname": "cat430w",
    "site": "NR",
    "platform": "WS-C3560-8PC",
    "deviceFamily": "Switch",
    "deviceRole": "Unknown",
    "interfaceCount": "9"
    },
    {
    "hostname": "cat411w",
    "site": "NR",
    "platform": "WS-C3560-8PC",
    "deviceFamily": "Switch",
    "deviceRole": "Unknown",
    "interfaceCount": "9"
    },
    {
    "hostname": "cat5kla",
    "site": "KLA",
    "platform": "WS-C3550-24-FX",
    "deviceFamily": "Switch",
    "deviceRole": "Unknown",
    "interfaceCount": "26"
    },
    {
    "hostname": "cat430nr7",
    "site": "NR",
    "platform": "WS-C2950C-24",
    "deviceFamily": "Switch",
    "deviceRole": "Unknown",
    "interfaceCount": "26"
    },
    {
    "hostname": "cat245nr",
    "site": "NR",
    "platform": "WS-C2960-48TT-L",
    "deviceFamily": "Switch",
    "deviceRole": "Unknown",
    "interfaceCount": "50"
    },
    {
    "hostname": "cat335nr",
    "site": "NR",
    "platform": "WS-C2960C-8TC-S",
    "deviceFamily": "Switch",
    "deviceRole": "Unknown",
    "interfaceCount": "9"
    },
    {
    "hostname": "cat226nr",
    "site": "NR",
    "platform": "WS-C2940-8TT-S",
    "deviceFamily": "Switch",
    "deviceRole": "Unknown",
    "interfaceCount": "9"
    },
    {
    "hostname": "cat228nr",
    "site": "NR",
    "platform": "WS-C2960C-8TC-L",
    "deviceFamily": "Switch",
    "deviceRole": "Unknown",
    "interfaceCount": "10"
    },
    {
    "hostname": "cat409nr",
    "site": "NR",
    "platform": "WS-C2960C-8TC-L",
    "deviceFamily": "Switch",
    "deviceRole": "Unknown",
    "interfaceCount": "10"
    },
    {
    "hostname": "cat430nr6",
    "site": "NR",
    "platform": "WS-C2960CPD-8PT-L",
    "deviceFamily": "Switch",
    "deviceRole": "Unknown",
    "interfaceCount": "10"
    },
    {
    "hostname": "cat430nr5",
    "site": "NR",
    "platform": "WS-C2960-24TT-L",
    "deviceFamily": "Switch",
    "deviceRole": "Unknown",
    "interfaceCount": "26"
    },
    {
    "hostname": "gw1-jbs",
    "site": "NR",
    "platform": "2811",
    "deviceFamily": "Router",
    "deviceRole": "Unknown",
    "interfaceCount": "0"
    },
    {
    "hostname": "cat2zas",
    "site": "DEF",
    "platform": "WS-C2950G-48-EI",
    "deviceFamily": "Switch",
    "deviceRole": "Unknown",
    "interfaceCount": "50"
    },
    {
    "hostname": "nub-blibm-01-sw02",
    "site": "DEF",
    "platform": "WS-CBS3012-IBM-I",
    "deviceFamily": "Switch",
    "deviceRole": "Unknown",
    "interfaceCount": "19"
    },
    {
    "hostname": "nub-blibm-01-sw01",
    "site": "DEF",
    "platform": "WS-CBS3012-IBM-I",
    "deviceFamily": "Switch",
    "deviceRole": "Unknown",
    "interfaceCount": "19"
    },
    {
    "hostname": "fw-o2",
    "site": "DEF",
    "platform": "2811",
    "deviceFamily": "Router",
    "deviceRole": "Unknown",
    "interfaceCount": "0"
    },
    {
    "hostname": "ap7rez",
    "site": "REZ",
    "platform": "AIR-AP1242AG-E-K9",
    "deviceFamily": "Access Point",
    "deviceRole": "Access Point",
    "interfaceCount": "0"
    },
    {
    "hostname": "ap6rez",
    "site": "REZ",
    "platform": "AIR-AP1242AG-E-K9",
    "deviceFamily": "Access Point",
    "deviceRole": "Access Point",
    "interfaceCount": "0"
    },
    {
    "hostname": "ap5rez",
    "site": "REZ",
    "platform": "AIR-AP1242AG-E-K9",
    "deviceFamily": "Access Point",
    "deviceRole": "Access Point",
    "interfaceCount": "0"
    },
    {
    "hostname": "ap4rez",
    "site": "REZ",
    "platform": "AIR-AP1242AG-E-K9",
    "deviceFamily": "Access Point",
    "deviceRole": "Access Point",
    "interfaceCount": "0"
    },
    {
    "hostname": "ap3rez",
    "site": "REZ",
    "platform": "AIR-AP1242AG-E-K9",
    "deviceFamily": "Access Point",
    "deviceRole": "Access Point",
    "interfaceCount": "0"
    },
    {
    "hostname": "ap2rez",
    "site": "REZ",
    "platform": "AIR-AP1242AG-E-K9",
    "deviceFamily": "Access Point",
    "deviceRole": "Access Point",
    "interfaceCount": "0"
    },
    {
    "hostname": "ap1rez",
    "site": "REZ",
    "platform": "AIR-AP1242AG-E-K9",
    "deviceFamily": "Access Point",
    "deviceRole": "Access Point",
    "interfaceCount": "0"
    },
    {
    "hostname": "ap8rez",
    "site": "REZ",
    "platform": "AIR-SAP1702I-E-K9",
    "deviceFamily": "Access Point",
    "deviceRole": "Access Point",
    "interfaceCount": "0"
    },
    {
    "hostname": "cat8boh",
    "site": "BOH",
    "platform": "WS-C2950C-24",
    "deviceFamily": "Switch",
    "deviceRole": "Unknown",
    "interfaceCount": "26"
    },
    {
    "hostname": "cat4boh",
    "site": "BOH",
    "platform": "WS-C2950G-24-EI",
    "deviceFamily": "Switch",
    "deviceRole": "Unknown",
    "interfaceCount": "26"
    },
    {
    "hostname": "cat3boh",
    "site": "BOH",
    "platform": "WS-C2950T-48-SI",
    "deviceFamily": "Switch",
    "deviceRole": "Unknown",
    "interfaceCount": "50"
    },
    {
    "hostname": "cat11boh",
    "site": "BOH",
    "platform": "WS-C2960S-48TS-S",
    "deviceFamily": "Switch",
    "deviceRole": "Unknown",
    "interfaceCount": "51"
    },
    {
    "hostname": "cat13boh",
    "site": "BOH",
    "platform": "WS-C2960-48TC-L",
    "deviceFamily": "Switch",
    "deviceRole": "Unknown",
    "interfaceCount": "50"
    },
    {
    "hostname": "cat12boh",
    "site": "BOH",
    "platform": "WS-C2960-48TC-L",
    "deviceFamily": "Switch",
    "deviceRole": "Unknown",
    "interfaceCount": "50"
    },
    {
    "hostname": "cat17boh",
    "site": "BOH",
    "platform": "WS-C2960G-24TC-L",
    "deviceFamily": "Switch",
    "deviceRole": "Unknown",
    "interfaceCount": "24"
    },
    {
    "hostname": "ap1boh-kom",
    "site": "BOH",
    "platform": "AIR-SAP1702I-E-K9",
    "deviceFamily": "Access Point",
    "deviceRole": "Access Point",
    "interfaceCount": "0"
    },
    {
    "hostname": "cat2boh",
    "site": "BOH",
    "platform": "WS-C2950-24",
    "deviceFamily": "Switch",
    "deviceRole": "Unknown",
    "interfaceCount": "24"
    },
    {
    "hostname": "cat1boh",
    "site": "BOH",
    "platform": "WS-C2960-8TC-L",
    "deviceFamily": "Switch",
    "deviceRole": "Unknown",
    "interfaceCount": "9"
    },
    {
    "hostname": "cat10boh",
    "site": "BOH",
    "platform": "WS-C2960X-48TS-L",
    "deviceFamily": "Switch",
    "deviceRole": "Unknown",
    "interfaceCount": "53"
    },
    {
    "hostname": "SE-BOH",
    "site": "BOH",
    "platform": "1721",
    "deviceFamily": "Router",
    "deviceRole": "Unknown",
    "interfaceCount": "0"
    },
    {
    "hostname": "cat5boh",
    "site": "BOH",
    "platform": "WS-C2950T-24",
    "deviceFamily": "Switch",
    "deviceRole": "Unknown",
    "interfaceCount": "26"
    },
    {
    "hostname": "cat14boh",
    "site": "BOH",
    "platform": "WS-C2960X-48FPS-L",
    "deviceFamily": "Switch",
    "deviceRole": "Unknown",
    "interfaceCount": "53"
    },
    {
    "hostname": "nvh06-gw1",
    "site": "BOH",
    "platform": "CISCO2921/K9",
    "deviceFamily": "Router",
    "deviceRole": "Unknown",
    "interfaceCount": "0"
    },
    {
    "hostname": "cat9boh",
    "site": "BOH",
    "platform": "WS-C2950-12",
    "deviceFamily": "Switch",
    "deviceRole": "Unknown",
    "interfaceCount": "12"
    },
    {
    "hostname": "cat6boh",
    "site": "BOH",
    "platform": "WS-C2960-24PC-L",
    "deviceFamily": "Switch",
    "deviceRole": "Unknown",
    "interfaceCount": "26"
    },
    {
    "hostname": "cat7boh",
    "site": "BOH",
    "platform": "WS-C2950-24",
    "deviceFamily": "Switch",
    "deviceRole": "Unknown",
    "interfaceCount": "24"
    },
    {
    "hostname": "cat15boh",
    "site": "BOH",
    "platform": "WS-C2960X-48FPS-L",
    "deviceFamily": "Switch",
    "deviceRole": "Unknown",
    "interfaceCount": "53"
    },
    {
    "hostname": "cat16boh",
    "site": "BOH",
    "platform": "WS-C2960X-48FPS-L",
    "deviceFamily": "Switch",
    "deviceRole": "Unknown",
    "interfaceCount": "53"
    },
    {
    "hostname": "cat4char",
    "site": "CHAR",
    "platform": "WS-C2950C-24",
    "deviceFamily": "Switch",
    "deviceRole": "Unknown",
    "interfaceCount": "26"
    },
    {
    "hostname": "cat3char",
    "site": "CHAR",
    "platform": "WS-C2960G-24TC-L",
    "deviceFamily": "Switch",
    "deviceRole": "Unknown",
    "interfaceCount": "24"
    },
    {
    "hostname": "ap1char",
    "site": "CHAR",
    "platform": "AIR-SAP1702I-E-K9",
    "deviceFamily": "Access Point",
    "deviceRole": "Access Point",
    "interfaceCount": "0"
    },
    {
    "hostname": "cat5char",
    "site": "CHAR",
    "platform": "WS-C2960G-24TC-L",
    "deviceFamily": "Switch",
    "deviceRole": "Unknown",
    "interfaceCount": "24"
    },
    {
    "hostname": "cat1char",
    "site": "CHAR",
    "platform": "WS-C2950T-48-SI",
    "deviceFamily": "Switch",
    "deviceRole": "Unknown",
    "interfaceCount": "50"
    },
    {
    "hostname": "cat2char",
    "site": "CHAR",
    "platform": "WS-C2950G-48-EI",
    "deviceFamily": "Switch",
    "deviceRole": "Unknown",
    "interfaceCount": "50"
    },
    {
    "hostname": "cat2dum",
    "site": "DUM",
    "platform": "WS-C2960-48TT-L",
    "deviceFamily": "Switch",
    "deviceRole": "Unknown",
    "interfaceCount": "50"
    },
    {
    "hostname": "cat1dum",
    "site": "DUM",
    "platform": "WS-C2960-48TT-L",
    "deviceFamily": "Switch",
    "deviceRole": "Unknown",
    "interfaceCount": "50"
    },
    {
    "hostname": "Osikova_GN91539",
    "site": "JAR",
    "platform": "881",
    "deviceFamily": "Router",
    "deviceRole": "Unknown",
    "interfaceCount": "0"
    },
    {
    "hostname": "cat2jar",
    "site": "JAR",
    "platform": "WS-C2950C-24",
    "deviceFamily": "Switch",
    "deviceRole": "Unknown",
    "interfaceCount": "26"
    },
    {
    "hostname": "cat1jar",
    "site": "JAR",
    "platform": "WS-C2950C-24",
    "deviceFamily": "Switch",
    "deviceRole": "Unknown",
    "interfaceCount": "26"
    },
    {
    "hostname": "cat2kla",
    "site": "KLA",
    "platform": "WS-C2950C-24",
    "deviceFamily": "Switch",
    "deviceRole": "Unknown",
    "interfaceCount": "26"
    },
    {
    "hostname": "cat1kla",
    "site": "KLA",
    "platform": "WS-C2950C-24",
    "deviceFamily": "Switch",
    "deviceRole": "Unknown",
    "interfaceCount": "26"
    },
    {
    "hostname": "cat6kla",
    "site": "KLA",
    "platform": "WS-C2950C-24",
    "deviceFamily": "Switch",
    "deviceRole": "Unknown",
    "interfaceCount": "26"
    },
    {
    "hostname": "cat4omiA",
    "site": "EMA",
    "platform": "WS-C2950C-24",
    "deviceFamily": "Switch",
    "deviceRole": "Unknown",
    "interfaceCount": "26"
    },
    {
    "hostname": "cat2omiA",
    "site": "EMA",
    "platform": "WS-C2950T-48-SI",
    "deviceFamily": "Switch",
    "deviceRole": "Unknown",
    "interfaceCount": "50"
    },
    {
    "hostname": "gw1-omi",
    "site": "EMA",
    "platform": "WS-C3750-48TS",
    "deviceFamily": "Switch",
    "deviceRole": "Unknown",
    "interfaceCount": "0"
    },
    {
    "hostname": "cat3omiA",
    "site": "EMA",
    "platform": "WS-C2960-24TT-L",
    "deviceFamily": "Switch",
    "deviceRole": "Unknown",
    "interfaceCount": "26"
    },
    {
    "hostname": "cat1omiA",
    "site": "EMA",
    "platform": "WS-C2950G-48-EI",
    "deviceFamily": "Switch",
    "deviceRole": "Unknown",
    "interfaceCount": "50"
    },
    {
    "hostname": "cat7omiA",
    "site": "EMA",
    "platform": "WS-C3560G-24TS",
    "deviceFamily": "Switch",
    "deviceRole": "Unknown",
    "interfaceCount": "0"
    },
    {
    "hostname": "cat6omiA",
    "site": "EMA",
    "platform": "WS-C2940-8TF-S",
    "deviceFamily": "Switch",
    "deviceRole": "Unknown",
    "interfaceCount": "10"
    },
    {
    "hostname": "cat5omiA",
    "site": "EMA",
    "platform": "WS-C2950G-48-EI",
    "deviceFamily": "Switch",
    "deviceRole": "Unknown",
    "interfaceCount": "50"
    },
    {
    "hostname": "gw1-min",
    "site": "DEF",
    "platform": "7206VXR",
    "deviceFamily": "Router",
    "deviceRole": "Unknown",
    "interfaceCount": "0"
    },
    {
    "hostname": "cat3min",
    "site": "DEF",
    "platform": "WS-C2960X-48FPS-L",
    "deviceFamily": "Switch",
    "deviceRole": "Unknown",
    "interfaceCount": "53"
    },
    {
    "hostname": "cat2min",
    "site": "DEF",
    "platform": "WS-C3560-48TS",
    "deviceFamily": "Switch",
    "deviceRole": "Unknown",
    "interfaceCount": "52"
    },
    {
    "hostname": "cat5ryt",
    "site": "RYT",
    "platform": "WS-C2960X-48FPS-L",
    "deviceFamily": "Switch",
    "deviceRole": "Unknown",
    "interfaceCount": "53"
    },
    {
    "hostname": "cat4ryt",
    "site": "RYT",
    "platform": "WS-C2960X-24PS-L",
    "deviceFamily": "Switch",
    "deviceRole": "Unknown",
    "interfaceCount": "29"
    },
    {
    "hostname": "cat3ryt",
    "site": "RYT",
    "platform": "WS-C2960X-48FPS-L",
    "deviceFamily": "Switch",
    "deviceRole": "Unknown",
    "interfaceCount": "53"
    },
    {
    "hostname": "ryt07-gw2",
    "site": "RYT",
    "platform": "ME-3400EG-12CS-M",
    "deviceFamily": "Unknown",
    "deviceRole": "Unknown",
    "interfaceCount": "0"
    },
    {
    "hostname": "cat2ryt",
    "site": "RYT",
    "platform": "WS-C2960-48TT-L",
    "deviceFamily": "Switch",
    "deviceRole": "Unknown",
    "interfaceCount": "50"
    },
    {
    "hostname": "cat1ryt",
    "site": "RYT",
    "platform": "WS-C2960-48TT-L",
    "deviceFamily": "Switch",
    "deviceRole": "Unknown",
    "interfaceCount": "50"
    },
    {
    "hostname": "cat6ryt",
    "site": "RYT",
    "platform": "WS-C2960X-24PS-L",
    "deviceFamily": "Switch",
    "deviceRole": "Unknown",
    "interfaceCount": "29"
    },
    {
    "hostname": "cat7ryt",
    "site": "RYT",
    "platform": "WS-C2960X-24PS-L",
    "deviceFamily": "Switch",
    "deviceRole": "Unknown",
    "interfaceCount": "29"
    },
    {
    "hostname": "cat3star",
    "site": "STR",
    "platform": "WS-C3560-8PC",
    "deviceFamily": "Switch",
    "deviceRole": "Unknown",
    "interfaceCount": "9"
    },
    {
    "hostname": "ap-konf1",
    "site": "STR",
    "platform": "AIR-SAP1702I-E-K9",
    "deviceFamily": "Access Point",
    "deviceRole": "Access Point",
    "interfaceCount": "0"
    },
    {
    "hostname": "ap3star",
    "site": "STR",
    "platform": "AIR-SAP1702I-E-K9",
    "deviceFamily": "Access Point",
    "deviceRole": "Access Point",
    "interfaceCount": "0"
    },
    {
    "hostname": "cat1star",
    "site": "STR",
    "platform": "WS-C2960-8TC-L",
    "deviceFamily": "Switch",
    "deviceRole": "Unknown",
    "interfaceCount": "9"
    },
    {
    "hostname": "ap2star",
    "site": "STR",
    "platform": "AIR-AP1242AG-E-K9",
    "deviceFamily": "Access Point",
    "deviceRole": "Access Point",
    "interfaceCount": "0"
    },
    {
    "hostname": "ap1star",
    "site": "STR",
    "platform": "AIR-AP1242AG-E-K9",
    "deviceFamily": "Access Point",
    "deviceRole": "Access Point",
    "interfaceCount": "0"
    },
    {
    "hostname": "ap4star",
    "site": "STR",
    "platform": "AIR-SAP1702I-E-K9",
    "deviceFamily": "Access Point",
    "deviceRole": "Access Point",
    "interfaceCount": "0"
    },
    {
    "hostname": "ap5star",
    "site": "STR",
    "platform": "AIR-SAP1702I-E-K9",
    "deviceFamily": "Access Point",
    "deviceRole": "Access Point",
    "interfaceCount": "0"
    },
    {
    "hostname": "cat2vys",
    "site": "VYS",
    "platform": "WS-C2960G-24TC-L",
    "deviceFamily": "Switch",
    "deviceRole": "Unknown",
    "interfaceCount": "24"
    },
    {
    "hostname": "navy03-gw1",
    "site": "VYS",
    "platform": "CISCO2921/K9",
    "deviceFamily": "Unknown",
    "deviceRole": "Unknown",
    "interfaceCount": "0"
    },
    {
    "hostname": "cat1vys",
    "site": "VYS",
    "platform": "WS-C2950C-24",
    "deviceFamily": "Switch",
    "deviceRole": "Unknown",
    "interfaceCount": "26"
    },
    {
    "hostname": "cat3vys",
    "site": "VYS",
    "platform": "WS-C2960G-24TC-L",
    "deviceFamily": "Switch",
    "deviceRole": "Unknown",
    "interfaceCount": "24"
    },
    {
    "hostname": "cat4vys",
    "site": "VYS",
    "platform": "WS-C2950G-48-EI",
    "deviceFamily": "Switch",
    "deviceRole": "Unknown",
    "interfaceCount": "50"
    },
    {
    "hostname": "cat2-vr",
    "site": "DEF",
    "platform": "WS-C2960-48TC-S",
    "deviceFamily": "Switch",
    "deviceRole": "Unknown",
    "interfaceCount": "0"
    },
    {
    "hostname": "apnr13",
    "site": "NR",
    "platform": "AIR-AP1242AG-E-K9",
    "deviceFamily": "Access Point",
    "deviceRole": "Access Point",
    "interfaceCount": "0"
    },
    {
    "hostname": "SEPD867D979137C",
    "site": "DEF",
    "platform": "CTS-CODEC-SX20",
    "deviceFamily": "Unknown",
    "deviceRole": "Unknown",
    "interfaceCount": "0"
    },
    {
    "hostname": "gw1-kon",
    "site": "KON",
    "platform": "WS-C3750X-12S",
    "deviceFamily": "Switch",
    "deviceRole": "Unknown",
    "interfaceCount": "0"
    },
    {
    "hostname": "cat04kon",
    "site": "KON",
    "platform": "WS-C2960C-8TC-L",
    "deviceFamily": "Switch",
    "deviceRole": "Unknown",
    "interfaceCount": "10"
    },
    {
    "hostname": "cat03kon",
    "site": "KON",
    "platform": "WS-C2960-48TT-S",
    "deviceFamily": "Switch",
    "deviceRole": "Unknown",
    "interfaceCount": "50"
    },
    {
    "hostname": "cat01kon",
    "site": "KON",
    "platform": "WS-C2960X-48TS-L",
    "deviceFamily": "Switch",
    "deviceRole": "Unknown",
    "interfaceCount": "53"
    },
    {
    "hostname": "cat23kon",
    "site": "KON",
    "platform": "WS-C3550-48",
    "deviceFamily": "Switch",
    "deviceRole": "Unknown",
    "interfaceCount": "50"
    },
    {
    "hostname": "cat22kon",
    "site": "KON",
    "platform": "WS-C2970G-24TS-E",
    "deviceFamily": "Switch",
    "deviceRole": "Unknown",
    "interfaceCount": "28"
    },
    {
    "hostname": "cat20kon",
    "site": "KON",
    "platform": "WS-C2960X-48TS-L",
    "deviceFamily": "Switch",
    "deviceRole": "Unknown",
    "interfaceCount": "53"
    },
    {
    "hostname": "cat45kon",
    "site": "KON",
    "platform": "WS-C2950G-48-EI",
    "deviceFamily": "Switch",
    "deviceRole": "Unknown",
    "interfaceCount": "50"
    },
    {
    "hostname": "cat43kon",
    "site": "KON",
    "platform": "WS-C2960X-48TS-L",
    "deviceFamily": "Switch",
    "deviceRole": "Unknown",
    "interfaceCount": "53"
    },
    {
    "hostname": "cat65kon",
    "site": "KON",
    "platform": "WS-C2950C-24",
    "deviceFamily": "Switch",
    "deviceRole": "Unknown",
    "interfaceCount": "26"
    },
    {
    "hostname": "cat66kon",
    "site": "KON",
    "platform": "WS-C3550-48",
    "deviceFamily": "Switch",
    "deviceRole": "Unknown",
    "interfaceCount": "50"
    },
    {
    "hostname": "cat62kon",
    "site": "KON",
    "platform": "WS-C2960X-48TS-L",
    "deviceFamily": "Switch",
    "deviceRole": "Unknown",
    "interfaceCount": "53"
    },
    {
    "hostname": "cat2brevnov",
    "site": "BREV",
    "platform": "WS-C2960X-48LPS-L",
    "deviceFamily": "Switch",
    "deviceRole": "Unknown",
    "interfaceCount": "52"
    },
    {
    "hostname": "ap1brevnov-los",
    "site": "BREV",
    "platform": "AIR-SAP1702I-E-K9",
    "deviceFamily": "Access Point",
    "deviceRole": "Access Point",
    "interfaceCount": "0"
    },
    {
    "hostname": "cat1brevnov",
    "site": "BREV",
    "platform": "WS-C2960X-48LPS-L",
    "deviceFamily": "Switch",
    "deviceRole": "Unknown",
    "interfaceCount": "53"
    },
    {
    "hostname": "cat7adrie",
    "site": "DEF",
    "platform": "WS-C2960X-48FPD-L",
    "deviceFamily": "Switch",
    "deviceRole": "Unknown",
    "interfaceCount": "51"
    },
    {
    "hostname": "cat5adrie",
    "site": "DEF",
    "platform": "WS-C2960L-24PS-LL",
    "deviceFamily": "Switch",
    "deviceRole": "Unknown",
    "interfaceCount": "28"
    },
    {
    "hostname": "cat6adria",
    "site": "DEF",
    "platform": "WS-C2960X-48FPD-L",
    "deviceFamily": "Switch",
    "deviceRole": "Unknown",
    "interfaceCount": "51"
    },
    {
    "hostname": "cat3adrie",
    "site": "DEF",
    "platform": "WS-C2960X-48FPS-L",
    "deviceFamily": "Switch",
    "deviceRole": "Unknown",
    "interfaceCount": "53"
    },
    {
    "hostname": "cat1adrie",
    "site": "DEF",
    "platform": "WS-C2960X-48FPS-L",
    "deviceFamily": "Switch",
    "deviceRole": "Unknown",
    "interfaceCount": "53"
    },
    {
    "hostname": "cat4adrie",
    "site": "DEF",
    "platform": "WS-C2960X-48FPS-L",
    "deviceFamily": "Switch",
    "deviceRole": "Unknown",
    "interfaceCount": "53"
    },
    {
    "hostname": "AP-SKOLKAROOT",
    "site": "DEF",
    "platform": "AIR-SAP1702I-E-K9",
    "deviceFamily": "Access Point",
    "deviceRole": "Access Point",
    "interfaceCount": "0"
    },
    {
    "hostname": "cat1-bubny",
    "site": "BUB",
    "platform": "",
    "deviceFamily": "Unknown",
    "deviceRole": "Unknown",
    "interfaceCount": "52"
    },
    {
    "hostname": "cat1omiB",
    "site": "EMA",
    "platform": "",
    "deviceFamily": "Unknown",
    "deviceRole": "Unknown",
    "interfaceCount": "50"
    },
    {
    "hostname": "cat02kon",
    "site": "KON",
    "platform": "",
    "deviceFamily": "Unknown",
    "deviceRole": "Unknown",
    "interfaceCount": "53"
    },
    {
    "hostname": "cat21kon",
    "site": "KON",
    "platform": "",
    "deviceFamily": "Unknown",
    "deviceRole": "Unknown",
    "interfaceCount": "53"
    },
    {
    "hostname": "cat40kon",
    "site": "KON",
    "platform": "",
    "deviceFamily": "Unknown",
    "deviceRole": "Unknown",
    "interfaceCount": "53"
    },
    {
    "hostname": "cat41kon",
    "site": "KON",
    "platform": "",
    "deviceFamily": "Unknown",
    "deviceRole": "Unknown",
    "interfaceCount": "53"
    },
    {
    "hostname": "cat42kon",
    "site": "KON",
    "platform": "",
    "deviceFamily": "Unknown",
    "deviceRole": "Unknown",
    "interfaceCount": "53"
    },
    {
    "hostname": "cat44kon",
    "site": "KON",
    "platform": "",
    "deviceFamily": "Unknown",
    "deviceRole": "Unknown",
    "interfaceCount": "53"
    },
    {
    "hostname": "cat60kon",
    "site": "KON",
    "platform": "",
    "deviceFamily": "Unknown",
    "deviceRole": "Unknown",
    "interfaceCount": "53"
    },
    {
    "hostname": "cat61kon",
    "site": "KON",
    "platform": "",
    "deviceFamily": "Unknown",
    "deviceRole": "Unknown",
    "interfaceCount": "52"
    },
    {
    "hostname": "cat63kon",
    "site": "KON",
    "platform": "",
    "deviceFamily": "Unknown",
    "deviceRole": "Unknown",
    "interfaceCount": "53"
    },
    {
    "hostname": "cat1oplet",
    "site": "OPLET",
    "platform": "",
    "deviceFamily": "Unknown",
    "deviceRole": "Unknown",
    "interfaceCount": "53"
    },
    {
    "hostname": "cat1-skolka",
    "site": "DEF",
    "platform": "",
    "deviceFamily": "Unknown",
    "deviceRole": "Unknown",
    "interfaceCount": "26"
    },
    {
    "hostname": "AP (10.16.130.23)",
    "site": "BOH",
    "platform": "AIR-SAP1602I-E-K9",
    "deviceFamily": "Access Point",
    "deviceRole": "Access Point",
    "interfaceCount": "0"
    },
    {
    "hostname": "AP (10.16.130.22)",
    "site": "BOH",
    "platform": "AIR-AP1131AG-E-K9",
    "deviceFamily": "Access Point",
    "deviceRole": "Access Point",
    "interfaceCount": "0"
    },
    {
    "hostname": "AP (10.16.130.8)",
    "site": "BOH",
    "platform": "AIR-AP1131AG-E-K9",
    "deviceFamily": "Access Point",
    "deviceRole": "Access Point",
    "interfaceCount": "0"
    },
    {
    "hostname": "AP (10.16.85.153)",
    "site": "JAR",
    "platform": "AIR-AP1131AG-E-K9",
    "deviceFamily": "Access Point",
    "deviceRole": "Access Point",
    "interfaceCount": "0"
    },
    {
    "hostname": "AP (10.16.85.152)",
    "site": "JAR",
    "platform": "AIR-AP1131AG-E-K9",
    "deviceFamily": "Access Point",
    "deviceRole": "Access Point",
    "interfaceCount": "0"
    },
    {
    "hostname": "AP (10.16.85.151)",
    "site": "JAR",
    "platform": "AIR-AP1131AG-E-K9",
    "deviceFamily": "Access Point",
    "deviceRole": "Access Point",
    "interfaceCount": "0"
    },
    {
    "hostname": "AP (10.16.87.131)",
    "site": "VYS",
    "platform": "AIR-AP1131AG-E-K9",
    "deviceFamily": "Access Point",
    "deviceRole": "Access Point",
    "interfaceCount": "0"
    },
    {
    "hostname": "AP (10.16.87.136)",
    "site": "VYS",
    "platform": "AIR-AP1131AG-E-K9",
    "deviceFamily": "Access Point",
    "deviceRole": "Access Point",
    "interfaceCount": "0"
    },
    {
    "hostname": "AP (10.16.87.134)",
    "site": "VYS",
    "platform": "AIR-AP1131AG-E-K9",
    "deviceFamily": "Access Point",
    "deviceRole": "Access Point",
    "interfaceCount": "0"
    },
    {
    "hostname": "AP (10.16.87.135)",
    "site": "VYS",
    "platform": "AIR-AP1131AG-E-K9",
    "deviceFamily": "Access Point",
    "deviceRole": "Access Point",
    "interfaceCount": "0"
    }
]